week7/week7/simulation/qsim/practice1.msim.vcd
$comment
	File created using the following command:
		vcd file practice1.msim.vcd -direction
$end
$date
	Fri Dec 17 13:13:52 2021
$end
$version
	ModelSim Version 2020.1
$end
$timescale
	1ps
$end

$scope module practice2_vlg_vec_tst $end
$var reg 1 ! clk $end
$var reg 12 " Keypad [11:0] $end
$var reg 1 # reset $end
$var wire 1 $ Dout [3] $end
$var wire 1 % Dout [2] $end
$var wire 1 & Dout [1] $end
$var wire 1 ' Dout [0] $end

$scope module i1 $end
$var wire 1 ( gnd $end
$var wire 1 ) vcc $end
$var wire 1 * unknown $end
$var tri1 1 + devclrn $end
$var tri1 1 , devpor $end
$var tri1 1 - devoe $end
$var wire 1 . ~QUARTUS_CREATED_GND~I_combout $end
$var wire 1 / clk~input_o $end
$var wire 1 0 clk~inputCLKENA0_outclk $end
$var wire 1 1 Keypad[0]~input_o $end
$var wire 1 2 Keypad[9]~input_o $end
$var wire 1 3 Keypad[8]~input_o $end
$var wire 1 4 inst|inst7~0_combout $end
$var wire 1 5 inst1|inst3|inst3~feeder_combout $end
$var wire 1 6 reset~input_o $end
$var wire 1 7 inst2|inst7~0_combout $end
$var wire 1 8 Keypad[4]~input_o $end
$var wire 1 9 Keypad[2]~input_o $end
$var wire 1 : Keypad[6]~input_o $end
$var wire 1 ; inst|inst12121~1_combout $end
$var wire 1 < Keypad[5]~input_o $end
$var wire 1 = Keypad[1]~input_o $end
$var wire 1 > Keypad[3]~input_o $end
$var wire 1 ? Keypad[7]~input_o $end
$var wire 1 @ inst|inst12121~0_combout $end
$var wire 1 A Keypad[10]~input_o $end
$var wire 1 B inst2|inst3~combout $end
$var wire 1 C inst2|inst8~q $end
$var wire 1 D Keypad[11]~input_o $end
$var wire 1 E inst44|Selector3~0_combout $end
$var wire 1 F inst44|fstate.state4~q $end
$var wire 1 G inst44|Selector4~0_combout $end
$var wire 1 H inst44|fstate.state5~q $end
$var wire 1 I inst44|reg_fstate.state1~0_combout $end
$var wire 1 J inst44|fstate.state1~q $end
$var wire 1 K inst44|Selector1~0_combout $end
$var wire 1 L inst44|Selector1~1_combout $end
$var wire 1 M inst44|fstate.state2~q $end
$var wire 1 N inst44|reg_fstate.state3~0_combout $end
$var wire 1 O inst44|fstate.state3~q $end
$var wire 1 P inst44|ce~0_combout $end
$var wire 1 Q inst2|inst7~q $end
$var wire 1 R inst1|inst13~combout $end
$var wire 1 S inst1|inst3|inst3~q $end
$var wire 1 T inst1|inst5~combout $end
$var wire 1 U inst1|inst17~combout $end
$var wire 1 V inst1|inst11~combout $end
$var wire 1 W inst1|inst1|inst3~q $end
$var wire 1 X inst1|inst10~combout $end
$var wire 1 Y inst1|inst|inst3~q $end
$var wire 1 Z inst1|inst12~combout $end
$var wire 1 [ inst1|inst2|inst3~q $end
$var wire 1 \ inst1|inst16|$00000|auto_generated|l1_w3_n0_mux_dataout~0_combout $end
$var wire 1 ] inst|inst6~0_combout $end
$var wire 1 ^ inst1|inst1|inst2~q $end
$var wire 1 _ inst1|inst|inst2~q $end
$var wire 1 ` inst1|inst2|inst2~q $end
$var wire 1 a inst1|inst3|inst2~feeder_combout $end
$var wire 1 b inst1|inst3|inst2~q $end
$var wire 1 c inst1|inst16|$00000|auto_generated|l1_w2_n0_mux_dataout~0_combout $end
$var wire 1 d inst|inst5~0_combout $end
$var wire 1 e inst1|inst3|inst1~feeder_combout $end
$var wire 1 f inst1|inst3|inst1~q $end
$var wire 1 g inst1|inst2|inst1~feeder_combout $end
$var wire 1 h inst1|inst2|inst1~q $end
$var wire 1 i inst1|inst|inst1~q $end
$var wire 1 j inst1|inst1|inst1~feeder_combout $end
$var wire 1 k inst1|inst1|inst1~q $end
$var wire 1 l inst1|inst16|$00000|auto_generated|l1_w1_n0_mux_dataout~0_combout $end
$var wire 1 m inst|inst4~0_combout $end
$var wire 1 n inst1|inst1|inst~q $end
$var wire 1 o inst1|inst3|inst~q $end
$var wire 1 p inst1|inst2|inst~q $end
$var wire 1 q inst1|inst|inst~q $end
$var wire 1 r inst1|inst16|$00000|auto_generated|l1_w0_n0_mux_dataout~0_combout $end
$upscope $end
$upscope $end
$enddefinitions $end
#0
$dumpvars
0!
b0 "
1#
0'
0&
0%
0$
0(
1)
x*
1+
1,
1-
0.
0/
00
01
02
03
04
05
16
17
08
09
0:
1;
0<
0=
0>
0?
1@
0A
0B
0C
0D
0E
0F
0G
0H
0I
0J
1K
0L
0M
0N
0O
0P
0Q
0R
0S
0T
0U
0V
0W
0X
0Y
0Z
0[
0\
0]
0^
0_
0`
0a
0b
0c
0d
0e
0f
0g
0h
0i
0j
0k
0l
0m
0n
0o
0p
0q
0r
$end
#20000
1!
1/
10
#40000
0!
0/
00
#60000
b10000000000 "
1!
1A
1/
10
0K
1I
1L
#80000
0!
0/
00
#100000
1!
1/
10
1M
1J
1K
#120000
b0 "
0!
0A
0/
00
#140000
b100000000 "
1!
13
1/
10
0;
14
1N
15
0L
#160000
0!
0/
00
#180000
1!
1/
10
1O
0M
0N
1X
1P
0K
1L
#200000
0!
0/
00
#220000
b0 "
1!
03
1/
10
1;
04
05
1Y
1Q
0O
1M
0X
1T
0P
1K
07
1B
1\
1$
0\
0$
#240000
b10000000 "
0!
1?
0/
00
1m
1d
1]
0@
1N
0L
1a
1j
1g
1e
#260000
1!
1/
10
1O
0M
0N
1V
0T
1P
0K
1L
1\
1$
#280000
0!
0/
00
#300000
1!
1/
10
1n
1k
1^
0Q
0O
1M
1C
0V
1U
1K
1N
0P
17
0L
0\
0$
#320000
b0 "
0!
0?
0/
00
0m
0d
0]
1@
0N
1L
0a
0j
0g
0e
#340000
b10000 "
1!
18
1/
10
1]
0;
1N
0L
1a
#360000
0!
0/
00
#380000
1!
1/
10
1O
0M
0N
1Z
0U
1P
0K
1L
1\
1$
#400000
0!
0/
00
#420000
b0 "
1!
08
1/
10
0]
1;
0a
1`
1Q
0O
1M
0Z
1U
1T
0P
1K
07
0B
0\
0$
#440000
b1000000 "
0!
1:
0/
00
1d
1]
0;
1N
0L
1a
1j
1g
1e
#460000
1!
1/
10
1O
0M
0N
0U
0T
1R
1P
1E
1\
1$
#480000
0!
0/
00
#500000
1!
1/
10
1f
1b
0Q
0O
1F
0C
0R
0P
17
#520000
b0 "
0!
0:
0/
00
0d
0]
1;
0a
0j
0g
0e
#540000
b100000000000 "
1!
1D
1/
10
1G
0E
#560000
0!
0/
00
#580000
1!
1/
10
1H
0F
1P
#600000
0!
0/
00
#620000
1!
1/
10
1Q
1T
07
1B
1r
1l
1c
0\
0$
1%
1&
1'
#640000
b0 "
0!
0D
0/
00
#660000
1!
1/
10
0Q
1C
1U
0T
17
0r
0l
0&
0'
#680000
0!
0/
00
#700000
1!
1/
10
1Q
1T
07
0I
0G
0B
1l
1&
#720000
0!
0/
00
#740000
1!
1/
10
0Q
0J
0H
0C
0U
0P
0T
17
0l
0c
1\
1$
0%
0&
#760000
0!
0/
00
#780000
1!
1/
10
#800000
0!
0/
00
#820000
1!
1/
10
#840000
0!
0/
00
#860000
1!
1/
10
#880000
0!
0/
00
#900000
1!
1/
10
#920000
0!
0/
00
#940000
1!
1/
10
#960000
0!
0/
00
#980000
1!
1/
10
