week5/5week/simulation/qsim/5week.msim.vcd
$comment
	File created using the following command:
		vcd file 5week.msim.vcd -direction
$end
$date
	Tue Oct 12 21:50:18 2021
$end
$version
	ModelSim Version 2020.1
$end
$timescale
	1ps
$end

$scope module practice2_vlg_vec_tst $end
$var reg 2 ! Address [1:0] $end
$var reg 1 " clk $end
$var reg 4 # DataIn [3:0] $end
$var reg 4 $ Out_init [3:0] $end
$var reg 1 % rst_n $end
$var reg 1 & RW $end
$var wire 1 ' DataOut [3] $end
$var wire 1 ( DataOut [2] $end
$var wire 1 ) DataOut [1] $end
$var wire 1 * DataOut [0] $end

$scope module i1 $end
$var wire 1 + gnd $end
$var wire 1 , vcc $end
$var wire 1 - unknown $end
$var tri1 1 . devclrn $end
$var tri1 1 / devpor $end
$var tri1 1 0 devoe $end
$var wire 1 1 ~QUARTUS_CREATED_GND~I_combout $end
$var wire 1 2 Out_init[3]~input_o $end
$var wire 1 3 clk~input_o $end
$var wire 1 4 clk~inputCLKENA0_outclk $end
$var wire 1 5 DataIn[3]~input_o $end
$var wire 1 6 inst28|inst3~feeder_combout $end
$var wire 1 7 rst_n~input_o $end
$var wire 1 8 Address[0]~input_o $end
$var wire 1 9 Address[1]~input_o $end
$var wire 1 : RW~input_o $end
$var wire 1 ; inst12~0_combout $end
$var wire 1 < inst28|inst3~q $end
$var wire 1 = inst13~0_combout $end
$var wire 1 > inst27|inst3~q $end
$var wire 1 ? inst8|$00000|auto_generated|l1_w3_n0_mux_dataout~0_combout $end
$var wire 1 @ inst29|inst3~feeder_combout $end
$var wire 1 A inst11~0_combout $end
$var wire 1 B inst29|inst3~q $end
$var wire 1 C inst14~combout $end
$var wire 1 D inst|inst3~q $end
$var wire 1 E inst8|$00000|auto_generated|l1_w3_n0_mux_dataout~1_combout $end
$var wire 1 F DataIn[2]~input_o $end
$var wire 1 G inst27|inst2~q $end
$var wire 1 H inst28|inst2~feeder_combout $end
$var wire 1 I inst28|inst2~q $end
$var wire 1 J inst8|$00000|auto_generated|l1_w2_n0_mux_dataout~0_combout $end
$var wire 1 K inst29|inst2~feeder_combout $end
$var wire 1 L inst29|inst2~q $end
$var wire 1 M Out_init[2]~input_o $end
$var wire 1 N inst|inst2~q $end
$var wire 1 O inst8|$00000|auto_generated|l1_w2_n0_mux_dataout~1_combout $end
$var wire 1 P Out_init[1]~input_o $end
$var wire 1 Q DataIn[1]~input_o $end
$var wire 1 R inst28|inst1~feeder_combout $end
$var wire 1 S inst28|inst1~q $end
$var wire 1 T inst27|inst1~q $end
$var wire 1 U inst8|$00000|auto_generated|l1_w1_n0_mux_dataout~0_combout $end
$var wire 1 V inst29|inst1~feeder_combout $end
$var wire 1 W inst29|inst1~q $end
$var wire 1 X inst|inst1~q $end
$var wire 1 Y inst8|$00000|auto_generated|l1_w1_n0_mux_dataout~1_combout $end
$var wire 1 Z DataIn[0]~input_o $end
$var wire 1 [ inst27|inst~q $end
$var wire 1 \ inst28|inst~feeder_combout $end
$var wire 1 ] inst28|inst~q $end
$var wire 1 ^ inst8|$00000|auto_generated|l1_w0_n0_mux_dataout~0_combout $end
$var wire 1 _ Out_init[0]~input_o $end
$var wire 1 ` inst29|inst~feeder_combout $end
$var wire 1 a inst29|inst~q $end
$var wire 1 b inst|inst~q $end
$var wire 1 c inst8|$00000|auto_generated|l1_w0_n0_mux_dataout~1_combout $end
$upscope $end
$upscope $end
$enddefinitions $end
#0
$dumpvars
b0 !
0"
b0 #
b0 $
1%
0&
0*
0)
0(
0'
0+
1,
x-
1.
1/
10
01
02
03
04
05
06
17
08
09
0:
0;
0<
0=
0>
0?
0@
0A
0B
0C
0D
0E
0F
0G
0H
0I
0J
0K
0L
0M
0N
0O
0P
0Q
0R
0S
0T
0U
0V
0W
0X
0Y
0Z
0[
0\
0]
0^
0_
0`
0a
0b
0c
$end
#20000
1"
13
14
#40000
0"
03
04
#60000
1"
13
14
#80000
0"
03
04
#100000
1"
13
14
#120000
b1 !
1&
b100 #
b110 #
0"
1:
1Q
1F
18
03
04
1=
1K
1H
1V
1R
#140000
1"
13
14
1T
1G
1J
1U
#160000
b0 !
0&
b10 #
b0 #
0"
0:
0Q
0F
08
03
04
0U
0J
0=
1Y
1O
0K
0H
0V
0R
1(
1)
0O
0Y
0)
0(
#180000
1"
13
14
#200000
0"
03
04
#220000
1"
13
14
#240000
0"
03
04
#260000
1"
13
14
#280000
b1 !
0"
18
03
04
1U
1J
1O
1Y
1)
1(
#300000
1"
13
14
#320000
0"
03
04
#340000
1"
13
14
#360000
0"
03
04
#380000
1"
13
14
#400000
0"
03
04
#420000
1"
13
14
#440000
0"
03
04
#460000
1"
13
14
#480000
0"
03
04
#500000
1"
13
14
#520000
b0 !
0"
08
03
04
0U
0J
0O
0Y
0)
0(
#540000
1"
13
14
#560000
0"
03
04
#580000
1"
13
14
#600000
0"
03
04
#620000
1"
13
14
#640000
0"
03
04
#660000
1"
13
14
#680000
0"
03
04
#700000
1"
13
14
#720000
0"
03
04
#740000
1"
13
14
#760000
0"
03
04
#780000
1"
13
14
#800000
0"
03
04
#820000
1"
13
14
#840000
0"
03
04
#860000
1"
13
14
#880000
0"
03
04
#900000
1"
13
14
#920000
0"
03
04
#940000
1"
13
14
#960000
0"
03
04
#980000
1"
13
14
