term_project/PROJECT/simulation/qsim/quartus.msim.vcd
$comment
	File created using the following command:
		vcd file quartus.msim.vcd -direction
$end
$date
	Wed Dec 22 15:23:28 2021
$end
$version
	ModelSim Version 2020.1
$end
$timescale
	1ps
$end

$scope module CPU_MEMORY_vlg_vec_tst $end
$var reg 1 ! clk $end
$var reg 8 " RAM2 [7:0] $end
$var reg 8 # RAM4 [7:0] $end
$var reg 8 $ RAM5 [7:0] $end
$var reg 1 % rst $end
$var reg 1 & sharp $end
$var reg 1 ' star $end
$var wire 1 ( a $end
$var wire 1 ) after_reg [7] $end
$var wire 1 * after_reg [6] $end
$var wire 1 + after_reg [5] $end
$var wire 1 , after_reg [4] $end
$var wire 1 - after_reg [3] $end
$var wire 1 . after_reg [2] $end
$var wire 1 / after_reg [1] $end
$var wire 1 0 after_reg [0] $end
$var wire 1 1 b $end
$var wire 1 2 before_reg [7] $end
$var wire 1 3 before_reg [6] $end
$var wire 1 4 before_reg [5] $end
$var wire 1 5 before_reg [4] $end
$var wire 1 6 before_reg [3] $end
$var wire 1 7 before_reg [2] $end
$var wire 1 8 before_reg [1] $end
$var wire 1 9 before_reg [0] $end
$var wire 1 : c $end
$var wire 1 ; com1 $end
$var wire 1 < com2 $end
$var wire 1 = com3 $end
$var wire 1 > com4 $end
$var wire 1 ? com5 $end
$var wire 1 @ com6 $end
$var wire 1 A com7 $end
$var wire 1 B com8 $end
$var wire 1 C d $end
$var wire 1 D e $end
$var wire 1 E f $end
$var wire 1 F g $end
$var wire 1 G SHW_Din [7] $end
$var wire 1 H SHW_Din [6] $end
$var wire 1 I SHW_Din [5] $end
$var wire 1 J SHW_Din [4] $end
$var wire 1 K SHW_Din [3] $end
$var wire 1 L SHW_Din [2] $end
$var wire 1 M SHW_Din [1] $end
$var wire 1 N SHW_Din [0] $end
$var wire 1 O sram_out [7] $end
$var wire 1 P sram_out [6] $end
$var wire 1 Q sram_out [5] $end
$var wire 1 R sram_out [4] $end
$var wire 1 S sram_out [3] $end
$var wire 1 T sram_out [2] $end
$var wire 1 U sram_out [1] $end
$var wire 1 V sram_out [0] $end

$scope module i1 $end
$var wire 1 W gnd $end
$var wire 1 X vcc $end
$var wire 1 Y unknown $end
$var tri1 1 Z devclrn $end
$var tri1 1 [ devpor $end
$var tri1 1 \ devoe $end
$var wire 1 ] inst5|inst6|inst11~regout $end
$var wire 1 ^ clk~combout $end
$var wire 1 _ rst~combout $end
$var wire 1 ` inst4|inst3|inst2~regout $end
$var wire 1 a inst4|inst3|inst1~regout $end
$var wire 1 b inst4|inst3|inst~regout $end
$var wire 1 c inst4|inst~0_combout $end
$var wire 1 d inst4|inst~1_combout $end
$var wire 1 e inst4|inst~2_combout $end
$var wire 1 f inst4|inst~3_combout $end
$var wire 1 g inst4|inst~4_combout $end
$var wire 1 h inst4|inst~5_combout $end
$var wire 1 i inst4|inst~6_combout $end
$var wire 1 j sharp~combout $end
$var wire 1 k star~combout $end
$var wire 1 l inst1|inst1~combout $end
$var wire 1 m inst1|inst4|inst~regout $end
$var wire 1 n inst1|inst4|inst1~regout $end
$var wire 1 o inst1|inst4|inst2~regout $end
$var wire 1 p inst8|inst|inst11~combout $end
$var wire 1 q inst1|inst44|inst~regout $end
$var wire 1 r inst1|inst44|inst11~regout $end
$var wire 1 s inst1|inst44|inst5~regout $end
$var wire 1 t inst2|inst15~4 $end
$var wire 1 u inst1|inst44|inst2~regout $end
$var wire 1 v inst1|inst44|inst9~regout $end
$var wire 1 w inst2|inst15~5 $end
$var wire 1 x inst1|inst44|inst3~regout $end
$var wire 1 y inst1|inst44|inst1~regout $end
$var wire 1 z inst2|inst15~6_combout $end
$var wire 1 { inst1|inst44|inst4~regout $end
$var wire 1 | inst2|inst31~4_combout $end
$var wire 1 } inst2|inst46~0_combout $end
$var wire 1 ~ inst2|inst46~1_combout $end
$var wire 1 !! inst1|inst3|inst9~regout $end
$var wire 1 "! inst1|inst3|inst11~regout $end
$var wire 1 #! inst1|inst3|inst4~regout $end
$var wire 1 $! inst1|inst3|inst5~regout $end
$var wire 1 %! inst7|inst55~0_combout $end
$var wire 1 &! inst1|inst3|inst1~regout $end
$var wire 1 '! inst1|inst3|inst2~regout $end
$var wire 1 (! inst1|inst3|inst~regout $end
$var wire 1 )! inst6|inst|inst11~combout $end
$var wire 1 *! inst2|inst15~7 $end
$var wire 1 +! inst6|inst|inst7~combout $end
$var wire 1 ,! inst1|inst3|inst3~regout $end
$var wire 1 -! inst8|inst|inst7~combout $end
$var wire 1 .! inst10|inst3|inst1~regout $end
$var wire 1 /! inst10|inst99|inst32~2_combout $end
$var wire 1 0! inst10|inst2|inst1~regout $end
$var wire 1 1! inst10|inst10|inst24~0 $end
$var wire 1 2! inst10|inst99|inst32~0_combout $end
$var wire 1 3! inst10|inst1|inst1~regout $end
$var wire 1 4! inst10|inst13|inst24~0 $end
$var wire 1 5! inst10|inst99|inst32~3_combout $end
$var wire 1 6! inst10|inst|inst1~regout $end
$var wire 1 7! inst10|inst10|inst24~1 $end
$var wire 1 8! inst10|inst13|inst24~1 $end
$var wire 1 9! inst10|inst99|inst32~4_combout $end
$var wire 1 :! inst10|inst5|inst1~regout $end
$var wire 1 ;! inst10|inst99|inst32~5_combout $end
$var wire 1 <! inst10|inst10|inst24~2 $end
$var wire 1 =! inst10|inst99|inst32~6_combout $end
$var wire 1 >! inst10|inst6|inst1~regout $end
$var wire 1 ?! inst10|inst7|inst1~regout $end
$var wire 1 @! inst10|inst13|inst24~2_combout $end
$var wire 1 A! inst10|inst13|inst24~3 $end
$var wire 1 B! inst10|inst13|inst24~4_combout $end
$var wire 1 C! inst10|inst3|inst~regout $end
$var wire 1 D! inst10|inst2|inst~regout $end
$var wire 1 E! inst10|inst10|inst25~0 $end
$var wire 1 F! inst10|inst10|inst25~1 $end
$var wire 1 G! inst10|inst2|inst2~regout $end
$var wire 1 H! inst10|inst3|inst2~regout $end
$var wire 1 I! inst10|inst13|inst23~0 $end
$var wire 1 J! inst10|inst13|inst23~1 $end
$var wire 1 K! inst10|inst10|inst10~2 $end
$var wire 1 L! inst10|inst10|inst10~3 $end
$var wire 1 M! inst10|inst7|inst9~regout $end
$var wire 1 N! inst10|inst6|inst9~regout $end
$var wire 1 O! inst10|inst10|inst19~2 $end
$var wire 1 P! inst10|inst5|inst9~regout $end
$var wire 1 Q! inst10|inst13|inst19~2 $end
$var wire 1 R! inst10|inst99|inst32~7_combout $end
$var wire 1 S! inst10|inst4|inst9~regout $end
$var wire 1 T! inst10|inst10|inst19~3 $end
$var wire 1 U! inst13|inst|inst2|inst6~0_combout $end
$var wire 1 V! inst13|inst|inst3|inst6~0_combout $end
$var wire 1 W! inst13|inst|inst4|inst6~0_combout $end
$var wire 1 X! inst13|inst|inst5|inst6~0_combout $end
$var wire 1 Y! inst13|inst|inst6|inst6~0_combout $end
$var wire 1 Z! inst13|inst|inst7|inst5~0_combout $end
$var wire 1 [! inst10|inst1|inst9~regout $end
$var wire 1 \! inst10|inst10|inst19~0 $end
$var wire 1 ]! inst10|inst10|inst19~1 $end
$var wire 1 ^! inst3|inst19~0_combout $end
$var wire 1 _! inst13|inst|inst7|inst6~0_combout $end
$var wire 1 `! inst13|inst|inst8|inst5~0_combout $end
$var wire 1 a! inst10|inst1|inst11~regout $end
$var wire 1 b! inst10|inst3|inst11~regout $end
$var wire 1 c! inst10|inst13|inst10~0_combout $end
$var wire 1 d! inst10|inst|inst11~regout $end
$var wire 1 e! inst10|inst2|inst11~regout $end
$var wire 1 f! inst10|inst10|inst10~0 $end
$var wire 1 g! inst10|inst10|inst10~1 $end
$var wire 1 h! inst3|inst10~0 $end
$var wire 1 i! inst5|inst5|inst11~regout $end
$var wire 1 j! inst5|inst|inst7|inst6~0 $end
$var wire 1 k! inst5|inst|inst8|inst5~0 $end
$var wire 1 l! inst9[7]~0_combout $end
$var wire 1 m! inst10|inst6|inst11~regout $end
$var wire 1 n! inst10|inst7|inst11~regout $end
$var wire 1 o! inst10|inst13|inst10~2 $end
$var wire 1 p! inst10|inst4|inst11~regout $end
$var wire 1 q! inst10|inst5|inst11~regout $end
$var wire 1 r! inst10|inst13|inst10~3 $end
$var wire 1 s! inst10|inst13|inst10~1 $end
$var wire 1 t! inst10|inst13|inst10~4_combout $end
$var wire 1 u! inst5|inst6|inst10|inst2~4_combout $end
$var wire 1 v! inst10|inst5|inst~regout $end
$var wire 1 w! inst10|inst7|inst~regout $end
$var wire 1 x! inst10|inst10|inst25~2 $end
$var wire 1 y! inst10|inst6|inst~regout $end
$var wire 1 z! inst10|inst13|inst25~2_combout $end
$var wire 1 {! inst10|inst13|inst25~3 $end
$var wire 1 |! inst5|inst6|inst10|inst2~6_combout $end
$var wire 1 }! inst5|inst6|inst10|inst2~5_combout $end
$var wire 1 ~! inst10|inst13|inst23~4 $end
$var wire 1 !" inst13|inst|inst3|inst5~0_combout $end
$var wire 1 "" inst9[2]~7_combout $end
$var wire 1 #" inst10|inst4|inst2~regout $end
$var wire 1 $" inst10|inst5|inst2~regout $end
$var wire 1 %" inst10|inst7|inst2~regout $end
$var wire 1 &" inst10|inst10|inst23~2 $end
$var wire 1 '" inst10|inst6|inst2~regout $end
$var wire 1 (" inst10|inst13|inst23~2_combout $end
$var wire 1 )" inst10|inst13|inst23~3 $end
$var wire 1 *" inst5|inst6|inst2~regout $end
$var wire 1 +" inst5|inst|123|inst6~0 $end
$var wire 1 ," inst5|inst5|inst1~regout $end
$var wire 1 -" inst5|inst6|inst1~regout $end
$var wire 1 ." inst5|inst|inst2|inst6~0 $end
$var wire 1 /" inst5|inst5|inst2~regout $end
$var wire 1 0" inst5|inst|inst3|inst5~0_combout $end
$var wire 1 1" inst10|inst10|inst23~0 $end
$var wire 1 2" inst10|inst1|inst2~regout $end
$var wire 1 3" inst10|inst|inst2~regout $end
$var wire 1 4" inst10|inst10|inst23~1 $end
$var wire 1 5" inst10|inst10|inst23~3 $end
$var wire 1 6" inst10|inst10|inst23~4_combout $end
$var wire 1 7" inst3|inst23~0_combout $end
$var wire 1 8" inst5|inst5|inst10|inst2~6_combout $end
$var wire 1 9" inst5|inst5|inst10|inst2~4_combout $end
$var wire 1 :" inst5|inst5|inst10|inst2~5_combout $end
$var wire 1 ;" inst3|inst25~0 $end
$var wire 1 <" inst9[0]~1_combout $end
$var wire 1 =" inst10|inst4|inst~regout $end
$var wire 1 >" inst10|inst10|inst25~3 $end
$var wire 1 ?" inst10|inst10|inst25~4_combout $end
$var wire 1 @" inst5|inst5|inst~regout $end
$var wire 1 A" inst5|inst6|inst~regout $end
$var wire 1 B" inst10|inst13|inst25~0 $end
$var wire 1 C" inst10|inst|inst~regout $end
$var wire 1 D" inst10|inst1|inst~regout $end
$var wire 1 E" inst10|inst13|inst25~1 $end
$var wire 1 F" inst10|inst13|inst25~4_combout $end
$var wire 1 G" inst13|inst|123|inst6~0_combout $end
$var wire 1 H" inst13|inst|inst2|inst5~combout $end
$var wire 1 I" inst10|inst4|inst1~regout $end
$var wire 1 J" inst10|inst10|inst24~3 $end
$var wire 1 K" inst10|inst10|inst24~4_combout $end
$var wire 1 L" inst3|inst24~0_combout $end
$var wire 1 M" inst5|inst|inst2|inst5 $end
$var wire 1 N" inst9[1]~2_combout $end
$var wire 1 O" inst~0_combout $end
$var wire 1 P" inst~1_combout $end
$var wire 1 Q" inst~combout $end
$var wire 1 R" inst10|inst99|inst32~1_combout $end
$var wire 1 S" inst10|inst3|inst3~regout $end
$var wire 1 T" inst10|inst13|inst22~0_combout $end
$var wire 1 U" inst10|inst13|inst22~1 $end
$var wire 1 V" inst10|inst13|inst22~4 $end
$var wire 1 W" inst13|inst|inst4|inst5~0_combout $end
$var wire 1 X" inst9[3]~6_combout $end
$var wire 1 Y" inst10|inst2|inst3~regout $end
$var wire 1 Z" inst10|inst10|inst22~0 $end
$var wire 1 [" inst10|inst1|inst3~regout $end
$var wire 1 \" inst10|inst|inst3~regout $end
$var wire 1 ]" inst10|inst10|inst22~1 $end
$var wire 1 ^" inst10|inst6|inst3~regout $end
$var wire 1 _" inst10|inst7|inst3~regout $end
$var wire 1 `" inst10|inst13|inst22~2_combout $end
$var wire 1 a" inst10|inst5|inst3~regout $end
$var wire 1 b" inst10|inst10|inst22~2 $end
$var wire 1 c" inst10|inst10|inst22~3 $end
$var wire 1 d" inst10|inst10|inst22~4_combout $end
$var wire 1 e" inst3|inst22~0_combout $end
$var wire 1 f" inst5|inst|inst3|inst6~0 $end
$var wire 1 g" inst5|inst5|inst3~regout $end
$var wire 1 h" inst5|inst|inst4|inst5~0_combout $end
$var wire 1 i" inst10|inst4|inst3~regout $end
$var wire 1 j" inst10|inst13|inst22~3 $end
$var wire 1 k" inst5|inst6|inst3~regout $end
$var wire 1 l" inst5|inst|inst4|inst6~0 $end
$var wire 1 m" inst5|inst|inst5|inst5~0 $end
$var wire 1 n" inst9[4]~5_combout $end
$var wire 1 o" inst13|inst|inst5|inst5~0_combout $end
$var wire 1 p" inst10|inst1|inst4~regout $end
$var wire 1 q" inst10|inst3|inst4~regout $end
$var wire 1 r" inst10|inst2|inst4~regout $end
$var wire 1 s" inst10|inst10|inst21~0 $end
$var wire 1 t" inst10|inst|inst4~regout $end
$var wire 1 u" inst10|inst13|inst21~0 $end
$var wire 1 v" inst10|inst13|inst21~1_combout $end
$var wire 1 w" inst10|inst5|inst4~regout $end
$var wire 1 x" inst10|inst10|inst21~2 $end
$var wire 1 y" inst10|inst6|inst4~regout $end
$var wire 1 z" inst10|inst7|inst4~regout $end
$var wire 1 {" inst10|inst13|inst21~2_combout $end
$var wire 1 |" inst10|inst13|inst21~3 $end
$var wire 1 }" inst10|inst13|inst21~4_combout $end
$var wire 1 ~" inst10|inst4|inst4~regout $end
$var wire 1 !# inst10|inst10|inst21~3 $end
$var wire 1 "# inst10|inst10|inst21~1 $end
$var wire 1 ## inst3|inst21~0_combout $end
$var wire 1 $# inst5|inst5|inst4~regout $end
$var wire 1 %# inst5|inst6|inst4~regout $end
$var wire 1 &# inst5|inst|inst5|inst6~0 $end
$var wire 1 '# inst5|inst|inst6|inst5~0 $end
$var wire 1 (# inst9[5]~4_combout $end
$var wire 1 )# inst13|inst|inst6|inst5~0_combout $end
$var wire 1 *# inst10|inst1|inst5~regout $end
$var wire 1 +# inst10|inst3|inst5~regout $end
$var wire 1 ,# inst10|inst13|inst20~0_combout $end
$var wire 1 -# inst10|inst2|inst5~regout $end
$var wire 1 .# inst10|inst10|inst20~0 $end
$var wire 1 /# inst10|inst|inst5~regout $end
$var wire 1 0# inst10|inst13|inst20~1 $end
$var wire 1 1# inst10|inst5|inst5~regout $end
$var wire 1 2# inst10|inst7|inst5~regout $end
$var wire 1 3# inst10|inst10|inst20~2 $end
$var wire 1 4# inst10|inst6|inst5~regout $end
$var wire 1 5# inst10|inst13|inst20~2_combout $end
$var wire 1 6# inst10|inst13|inst20~3 $end
$var wire 1 7# inst10|inst13|inst20~4_combout $end
$var wire 1 8# inst10|inst4|inst5~regout $end
$var wire 1 9# inst10|inst10|inst20~3 $end
$var wire 1 :# inst10|inst10|inst20~1 $end
$var wire 1 ;# inst3|inst20~0_combout $end
$var wire 1 <# inst5|inst5|inst5~regout $end
$var wire 1 =# inst5|inst6|inst5~regout $end
$var wire 1 ># inst5|inst|inst6|inst6~0 $end
$var wire 1 ?# inst5|inst|inst7|inst5~0 $end
$var wire 1 @# inst9[6]~3_combout $end
$var wire 1 A# inst10|inst|inst9~regout $end
$var wire 1 B# inst10|inst2|inst9~regout $end
$var wire 1 C# inst10|inst3|inst9~regout $end
$var wire 1 D# inst10|inst13|inst19~0_combout $end
$var wire 1 E# inst10|inst13|inst19~1 $end
$var wire 1 F# inst10|inst13|inst19~3 $end
$var wire 1 G# inst10|inst13|inst19~4_combout $end
$var wire 1 H# inst5|inst6|inst9~regout $end
$var wire 1 I# inst5|inst5|inst9~regout $end
$var wire 1 J# inst4|inst21|inst2~2_combout $end
$var wire 1 K# inst4|inst21|inst2~3_combout $end
$var wire 1 L# inst4|inst21|inst2~0_combout $end
$var wire 1 M# inst4|inst21|inst2~1_combout $end
$var wire 1 N# inst4|inst44|inst1~0_combout $end
$var wire 1 O# inst4|inst~7_combout $end
$var wire 1 P# inst10|inst10|inst10~4_combout $end
$var wire 1 Q# inst10|inst10|inst19~4_combout $end
$var wire 1 R# inst10|inst10|inst20~4_combout $end
$var wire 1 S# inst10|inst10|inst21~4_combout $end
$var wire 1 T# inst16|inst2 [7] $end
$var wire 1 U# inst16|inst2 [6] $end
$var wire 1 V# inst16|inst2 [5] $end
$var wire 1 W# inst16|inst2 [4] $end
$var wire 1 X# inst16|inst2 [3] $end
$var wire 1 Y# inst16|inst2 [2] $end
$var wire 1 Z# inst16|inst2 [1] $end
$var wire 1 [# inst16|inst2 [0] $end
$var wire 1 \# RAM4~combout [7] $end
$var wire 1 ]# RAM4~combout [6] $end
$var wire 1 ^# RAM4~combout [5] $end
$var wire 1 _# RAM4~combout [4] $end
$var wire 1 `# RAM4~combout [3] $end
$var wire 1 a# RAM4~combout [2] $end
$var wire 1 b# RAM4~combout [1] $end
$var wire 1 c# RAM4~combout [0] $end
$var wire 1 d# RAM5~combout [7] $end
$var wire 1 e# RAM5~combout [6] $end
$var wire 1 f# RAM5~combout [5] $end
$var wire 1 g# RAM5~combout [4] $end
$var wire 1 h# RAM5~combout [3] $end
$var wire 1 i# RAM5~combout [2] $end
$var wire 1 j# RAM5~combout [1] $end
$var wire 1 k# RAM5~combout [0] $end
$var wire 1 l# inst16|inst3 [7] $end
$var wire 1 m# inst16|inst3 [6] $end
$var wire 1 n# inst16|inst3 [5] $end
$var wire 1 o# inst16|inst3 [4] $end
$var wire 1 p# inst16|inst3 [3] $end
$var wire 1 q# inst16|inst3 [2] $end
$var wire 1 r# inst16|inst3 [1] $end
$var wire 1 s# inst16|inst3 [0] $end
$var wire 1 t# RAM2~combout [7] $end
$var wire 1 u# RAM2~combout [6] $end
$var wire 1 v# RAM2~combout [5] $end
$var wire 1 w# RAM2~combout [4] $end
$var wire 1 x# RAM2~combout [3] $end
$var wire 1 y# RAM2~combout [2] $end
$var wire 1 z# RAM2~combout [1] $end
$var wire 1 {# RAM2~combout [0] $end
$var wire 1 |# inst16|inst [7] $end
$var wire 1 }# inst16|inst [6] $end
$var wire 1 ~# inst16|inst [5] $end
$var wire 1 !$ inst16|inst [4] $end
$var wire 1 "$ inst16|inst [3] $end
$var wire 1 #$ inst16|inst [2] $end
$var wire 1 $$ inst16|inst [1] $end
$var wire 1 %$ inst16|inst [0] $end
$var wire 1 &$ inst9 [7] $end
$var wire 1 '$ inst9 [6] $end
$var wire 1 ($ inst9 [5] $end
$var wire 1 )$ inst9 [4] $end
$var wire 1 *$ inst9 [3] $end
$var wire 1 +$ inst9 [2] $end
$var wire 1 ,$ inst9 [1] $end
$var wire 1 -$ inst9 [0] $end
$upscope $end
$upscope $end
$enddefinitions $end
#0
$dumpvars
0!
b1000100 "
b100 #
b1000001 $
1%
0&
0'
1(
00
0/
0.
0-
0,
0+
0*
0)
11
09
08
07
06
05
04
03
02
1:
1;
1<
1=
1>
1?
1@
1A
0B
1C
1D
1E
0F
0N
0M
0L
0K
0J
0I
0H
0G
0V
0U
0T
0S
0R
0Q
0P
0O
0W
1X
xY
1Z
1[
1\
0]
0^
1_
0`
0a
0b
0c
0d
0e
0f
0g
0h
0i
0j
0k
0l
0m
0n
0o
0p
0q
0r
0s
1t
0u
0v
0w
0x
0y
0z
0{
0|
0}
0~
0!!
0"!
0#!
0$!
0%!
0&!
0'!
0(!
0)!
0*!
0+!
0,!
0-!
0.!
0/!
00!
01!
02!
03!
04!
05!
06!
07!
08!
09!
0:!
0;!
0<!
0=!
0>!
0?!
0@!
0A!
0B!
0C!
0D!
0E!
0F!
0G!
0H!
0I!
0J!
0K!
0L!
0M!
0N!
0O!
0P!
0Q!
0R!
0S!
0T!
1U!
1V!
1W!
1X!
1Y!
0Z!
0[!
0\!
0]!
0^!
1_!
0`!
0a!
0b!
0c!
0d!
0e!
0f!
0g!
0h!
0i!
0j!
1k!
0l!
0m!
0n!
0o!
0p!
0q!
0r!
0s!
0t!
0u!
0v!
0w!
0x!
0y!
0z!
0{!
0|!
0}!
0~!
0!"
0""
0#"
0$"
0%"
0&"
0'"
0("
0)"
0*"
0+"
0,"
0-"
0."
0/"
10"
01"
02"
03"
04"
05"
06"
07"
08"
09"
0:"
0;"
0<"
0="
0>"
0?"
0@"
0A"
0B"
0C"
0D"
0E"
0F"
1G"
0H"
0I"
0J"
0K"
0L"
1M"
0N"
0O"
0P"
0Q"
0R"
0S"
0T"
0U"
0V"
0W"
0X"
0Y"
0Z"
0["
0\"
0]"
0^"
0_"
0`"
0a"
0b"
0c"
0d"
0e"
0f"
0g"
1h"
0i"
0j"
0k"
0l"
1m"
0n"
0o"
0p"
0q"
0r"
0s"
0t"
0u"
0v"
0w"
0x"
0y"
0z"
0{"
0|"
0}"
0~"
0!#
0"#
0##
0$#
0%#
0&#
1'#
0(#
0)#
0*#
0+#
0,#
0-#
0.#
0/#
00#
01#
02#
03#
04#
05#
06#
07#
08#
09#
0:#
0;#
0<#
0=#
0>#
1?#
0@#
0A#
0B#
0C#
0D#
0E#
0F#
0G#
0H#
0I#
0J#
0K#
0L#
0M#
1N#
1O#
0P#
0Q#
0R#
0S#
0[#
0Z#
0Y#
0X#
0W#
0V#
0U#
0T#
0c#
0b#
1a#
0`#
0_#
0^#
0]#
0\#
1k#
0j#
0i#
zh#
zg#
zf#
ze#
zd#
0s#
0r#
0q#
0p#
0o#
0n#
0m#
0l#
0{#
0z#
1y#
0x#
0w#
0v#
1u#
0t#
0%$
0$$
z#$
0"$
0!$
z~#
z}#
z|#
0-$
0,$
0+$
0*$
0)$
0($
0'$
0&$
$end
#5000
1!
1^
1`
0O#
1c
0A
1B
#10000
0!
0^
#15000
1!
1^
1a
0`
1d
0c
1A
0@
#20000
0!
0^
#25000
1!
1^
1`
1L#
1J#
1e
0d
1@
0?
#30000
0!
0^
#35000
1!
1^
1b
0a
0`
1f
0e
1M#
0L#
1K#
0J#
0N#
0M#
0K#
1?
0>
1N#
0E
0D
0C
0(
1E
1D
1C
1(
#40000
0!
0^
#45000
1!
1^
1`
1g
0f
1>
0=
#50000
0!
0^
#55000
1!
1^
1a
0`
1h
0g
1=
0<
#60000
0!
0^
#65000
1!
1^
1`
1L#
1J#
1i
0h
1<
0;
#70000
0!
0^
#75000
1!
1^
0b
0a
0`
1O#
0i
1M#
0L#
1K#
0J#
0N#
0M#
0K#
1;
0B
1N#
0E
0D
0C
0(
1E
1D
1C
1(
#80000
0!
0^
#85000
1!
1^
1`
0O#
1c
0A
1B
#90000
0!
0^
#95000
1!
1^
1a
0`
1d
0c
1A
0@
#100000
0!
0^
#105000
1!
1^
1`
1L#
1J#
1e
0d
1@
0?
#110000
0!
0^
#115000
1!
1^
1b
0a
0`
1f
0e
1M#
0L#
1K#
0J#
0N#
0M#
0K#
1?
0>
1N#
0E
0D
0C
0(
1E
1D
1C
1(
#120000
0!
0^
#125000
1!
1^
1`
1g
0f
1>
0=
#130000
0!
0^
#135000
1!
1^
1a
0`
1h
0g
1=
0<
#140000
0!
0^
#145000
1!
1^
1`
1L#
1J#
1i
0h
1<
0;
#150000
0!
0^
#155000
1!
1^
0b
0a
0`
1O#
0i
1M#
0L#
1K#
0J#
0N#
0M#
0K#
1;
0B
1N#
0E
0D
0C
0(
1E
1D
1C
1(
#160000
0!
0^
#165000
1!
1^
1`
0O#
1c
0A
1B
#170000
0!
0^
#175000
1!
1^
1a
0`
1d
0c
1A
0@
#180000
0!
0^
#185000
1!
1^
1`
1L#
1J#
1e
0d
1@
0?
#190000
0!
0^
#195000
1!
1^
1b
0a
0`
1f
0e
1M#
0L#
1K#
0J#
0N#
0M#
0K#
1?
0>
1N#
0E
0D
0C
0(
1E
1D
1C
1(
#200000
0!
0^
#205000
1!
1^
1`
1g
0f
1>
0=
#210000
0!
0^
#215000
1!
1^
1a
0`
1h
0g
1=
0<
#220000
0!
0^
#225000
1!
1^
1`
1L#
1J#
1i
0h
1<
0;
#230000
0!
0^
#235000
1!
1^
0b
0a
0`
1O#
0i
1M#
0L#
1K#
0J#
0N#
0M#
0K#
1;
0B
1N#
0E
0D
0C
0(
1E
1D
1C
1(
#240000
0!
0^
#245000
1!
1^
1`
0O#
1c
0A
1B
#250000
1'
0!
1k
0^
1l
#255000
1!
1^
1'!
1v
1u
1m
1a
0`
17"
1)!
1D#
15#
1,#
1{"
1u"
1`"
1T"
1("
1z!
1o!
1c!
1Q!
1I!
1B"
1@!
14!
1-!
1p
1d
0c
18"
0V!
1L
17
1A
0@
1:"
1W"
0W!
1o"
0X!
1)#
0Y!
0_!
1Z!
1`!
#260000
0!
0^
#265000
1!
1^
1/"
1U#
1Y#
1`
1M#
00"
1w
1L#
1J#
1e
0d
1.
0N#
1z
0M#
1@
0?
1*!
1N#
0E
0D
0C
0(
1+$
1E
1D
1C
1(
1P"
1Q"
15!
#270000
0!
0^
#275000
1!
1^
13"
1m#
1q#
1b
0a
0`
0w
1f
0e
1M#
0L#
1K#
0J#
1J!
0z
0N#
0M#
0K#
1~!
1?
0>
0*!
1N#
1!"
1}!
1V!
0E
0D
0C
0(
0+$
0W"
1W!
1E
1D
1C
1(
0P"
0o"
1X!
0Q"
0)#
1Y!
05!
1_!
0Z!
0`!
#280000
0!
0^
#285000
1!
1^
1*"
1`
10"
1f"
1g
0f
0h"
1>
0=
#290000
0!
0^
#295000
1!
1^
1a
0`
1M#
1h
0g
1=
0<
#300000
0!
0^
#305000
1!
1^
1`
1L#
1J#
1i
0h
0M#
1<
0;
#310000
0!
0^
#315000
1!
1^
0b
0a
0`
1O#
0i
1M#
0L#
1K#
0J#
0N#
0M#
0K#
1;
0B
1N#
0E
0D
0C
0(
1E
1D
1C
1(
#320000
0!
0^
#325000
1!
1^
1`
0O#
1c
0A
1B
#330000
0!
0^
#335000
1!
1^
1a
0`
1M#
1d
0c
0N#
1A
0@
0E
0D
0C
0(
#340000
0!
0^
#345000
1!
1^
1`
1L#
1J#
1e
0d
0M#
1@
0?
1N#
1E
1D
1C
1(
#350000
0!
0^
#355000
1!
1^
1b
0a
0`
1f
0e
1M#
0L#
1K#
0J#
0N#
0M#
0K#
1?
0>
1N#
0E
0D
0C
0(
1E
1D
1C
1(
#360000
0!
0^
#365000
1!
1^
1`
1g
0f
1>
0=
#370000
0!
0^
#375000
1!
1^
1a
0`
1M#
1h
0g
1=
0<
#380000
0!
0^
#385000
1!
1^
1`
1L#
1J#
1i
0h
0M#
1<
0;
#390000
0!
0^
#395000
1!
1^
0b
0a
0`
1O#
0i
1M#
0L#
1K#
0J#
0N#
0M#
0K#
1;
0B
1N#
0E
0D
0C
0(
1E
1D
1C
1(
#400000
0!
0^
#405000
1!
1^
1`
0O#
1c
0A
1B
#410000
0!
0^
#415000
1!
1^
1a
0`
1M#
1d
0c
0N#
1A
0@
0E
0D
0C
0(
#420000
0!
0^
#425000
1!
1^
1`
1L#
1J#
1e
0d
0M#
1@
0?
1N#
1E
1D
1C
1(
#430000
0!
0^
#435000
1!
1^
1b
0a
0`
1f
0e
1M#
0L#
1K#
0J#
0N#
0M#
0K#
1?
0>
1N#
0E
0D
0C
0(
1E
1D
1C
1(
#440000
0!
0^
#445000
1!
1^
1`
1g
0f
1>
0=
#450000
0!
0^
#455000
1!
1^
1a
0`
1M#
1h
0g
1=
0<
#460000
0!
0^
#465000
1!
1^
1`
1L#
1J#
1i
0h
0M#
1<
0;
#470000
0!
0^
#475000
1!
1^
0b
0a
0`
1O#
0i
1M#
0L#
1K#
0J#
0N#
0M#
0K#
1;
0B
1N#
0E
0D
0C
0(
1E
1D
1C
1(
#480000
0!
0^
#485000
1!
1^
1`
0O#
1c
0A
1B
#490000
0!
0^
#495000
1!
1^
1a
0`
1M#
1d
0c
0N#
1A
0@
0E
0D
0C
0(
#500000
0!
0^
#505000
1!
1^
1`
1L#
1J#
1e
0d
0M#
1@
0?
1N#
1E
1D
1C
1(
#510000
0!
0^
#515000
1!
1^
1b
0a
0`
1f
0e
1M#
0L#
1K#
0J#
0N#
0M#
0K#
1?
0>
1N#
0E
0D
0C
0(
1E
1D
1C
1(
#520000
0!
0^
#525000
1!
1^
1`
1g
0f
1>
0=
#530000
0!
0^
#535000
1!
1^
1a
0`
1M#
1h
0g
1=
0<
#540000
0!
0^
#545000
1!
1^
1`
1L#
1J#
1i
0h
0M#
1<
0;
#550000
0!
0^
#555000
1!
1^
0b
0a
0`
1O#
0i
1M#
0L#
1K#
0J#
0N#
0M#
0K#
1;
0B
1N#
0E
0D
0C
0(
1E
1D
1C
1(
#560000
0!
0^
#565000
1!
1^
1`
0O#
1c
0A
1B
#570000
0!
0^
#575000
1!
1^
1a
0`
1M#
1d
0c
0N#
1A
0@
0E
0D
0C
0(
#580000
0!
0^
#585000
1!
1^
1`
1L#
1J#
1e
0d
0M#
1@
0?
1N#
1E
1D
1C
1(
#590000
0!
0^
#595000
1!
1^
1b
0a
0`
1f
0e
1M#
0L#
1K#
0J#
0N#
0M#
0K#
1?
0>
1N#
0E
0D
0C
0(
1E
1D
1C
1(
#600000
0!
0^
#605000
1!
1^
1`
1g
0f
1>
0=
#610000
0!
0^
#615000
1!
1^
1a
0`
1M#
1h
0g
1=
0<
#620000
0!
0^
#625000
1!
1^
1`
1L#
1J#
1i
0h
0M#
1<
0;
#630000
0!
0^
#635000
1!
1^
0b
0a
0`
1O#
0i
1M#
0L#
1K#
0J#
0N#
0M#
0K#
1;
0B
1N#
0E
0D
0C
0(
1E
1D
1C
1(
#640000
0!
0^
