week1/2021jjg/simulation/qsim/introduction.msim.vcd
$comment
	File created using the following command:
		vcd file introduction.msim.vcd -direction
$end
$date
	Tue Sep 14 18:18:24 2021
$end
$version
	ModelSim Version 2020.1
$end
$timescale
	1ps
$end

$scope module practice1_vlg_vec_tst $end
$var reg 1 ! A $end
$var reg 1 " B $end
$var reg 1 # C $end
$var reg 1 $ D $end
$var wire 1 % OUT1 $end
$var wire 1 & OUT2 $end

$scope module i1 $end
$var wire 1 ' gnd $end
$var wire 1 ( vcc $end
$var wire 1 ) unknown $end
$var tri1 1 * devclrn $end
$var tri1 1 + devpor $end
$var tri1 1 , devoe $end
$var wire 1 - ~QUARTUS_CREATED_GND~I_combout $end
$var wire 1 . A~input_o $end
$var wire 1 / C~input_o $end
$var wire 1 0 D~input_o $end
$var wire 1 1 B~input_o $end
$var wire 1 2 inst~0_combout $end
$upscope $end
$upscope $end
$enddefinitions $end
#0
$dumpvars
0!
0"
0#
0$
0%
0&
0'
1(
x)
1*
1+
1,
0-
0.
0/
00
01
12
$end
#40000
1!
1.
02
1&
1%
#60000
1#
1/
#100000
1"
1$
11
10
#240000
0!
0.
#320000
0#
0/
12
0&
0%
#340000
0"
0$
01
00
#400000
1!
1"
1.
11
02
1&
1%
#440000
1#
1$
1/
10
#460000
0!
0"
0.
01
12
0&
0%
#500000
1!
1"
1.
11
02
1&
1%
#560000
0!
0"
0.
01
12
0&
0%
#600000
0#
0$
0/
00
#640000
1!
1"
1#
1.
11
1/
02
1&
1%
#680000
0!
0"
0#
0.
01
0/
12
0&
0%
#700000
1$
1#
10
1/
#780000
0$
0#
00
0/
#800000
1!
1.
02
1&
1%
#820000
1$
1#
10
1/
#840000
1"
11
#900000
0!
0"
0.
01
12
0&
0%
#960000
0$
0#
00
0/
