week4/4weekpractice4/simulation/qsim/practice4.msim.vcd
$comment
	File created using the following command:
		vcd file practice4.msim.vcd -direction
$end
$date
	Tue Oct 05 19:42:27 2021
$end
$version
	ModelSim Version 2020.1
$end
$timescale
	1ps
$end

$scope module practice4_vlg_vec_tst $end
$var reg 1 ! Ce $end
$var reg 1 " CLK $end
$var reg 1 # Din0 $end
$var reg 1 $ Din1 $end
$var reg 1 % Din2 $end
$var reg 1 & Din3 $end
$var reg 1 ' RST $end
$var wire 1 ( Dout0 $end
$var wire 1 ) Dout1 $end
$var wire 1 * Dout2 $end
$var wire 1 + Dout3 $end

$scope module i1 $end
$var wire 1 , gnd $end
$var wire 1 - vcc $end
$var wire 1 . unknown $end
$var tri1 1 / devclrn $end
$var tri1 1 0 devpor $end
$var tri1 1 1 devoe $end
$var wire 1 2 ~QUARTUS_CREATED_GND~I_combout $end
$var wire 1 3 CLK~input_o $end
$var wire 1 4 CLK~inputCLKENA0_outclk $end
$var wire 1 5 Din0~input_o $end
$var wire 1 6 inst~feeder_combout $end
$var wire 1 7 RST~input_o $end
$var wire 1 8 Ce~input_o $end
$var wire 1 9 inst~q $end
$var wire 1 : Din1~input_o $end
$var wire 1 ; inst1~q $end
$var wire 1 < Din2~input_o $end
$var wire 1 = inst2~feeder_combout $end
$var wire 1 > inst2~q $end
$var wire 1 ? Din3~input_o $end
$var wire 1 @ inst3~feeder_combout $end
$var wire 1 A inst3~q $end
$upscope $end
$upscope $end
$enddefinitions $end
#0
$dumpvars
0!
0"
0#
0$
0%
0&
1'
0(
0)
0*
0+
0,
1-
x.
1/
10
11
02
03
04
05
06
17
08
09
0:
0;
0<
0=
0>
0?
0@
0A
$end
#20000
1"
13
14
#40000
0"
03
04
#60000
1"
13
14
#80000
0"
03
04
#100000
1"
13
14
#120000
0"
03
04
#140000
1!
1"
18
13
14
#160000
0"
03
04
#180000
1#
1$
1%
1"
15
1:
1<
13
14
1=
16
1;
1)
#200000
0"
03
04
#220000
1"
13
14
1>
19
1(
1*
#240000
0#
0$
0%
0"
05
0:
0<
03
04
0=
06
#260000
1"
13
14
0>
0;
09
0(
0)
0*
#280000
1&
0"
1?
03
04
1@
#300000
1"
13
14
1A
1+
#320000
0"
03
04
#340000
0&
1"
0?
13
14
0@
#360000
0"
03
04
#380000
1"
13
14
0A
0+
#400000
0"
03
04
#420000
1"
13
14
#440000
0"
03
04
#460000
1"
13
14
#480000
0"
03
04
#500000
0!
1"
08
13
14
#520000
0"
03
04
#540000
1"
13
14
#560000
0"
03
04
#580000
1"
13
14
#600000
1!
0"
18
03
04
#620000
1#
1$
1"
15
1:
13
14
16
1;
1)
#640000
0"
03
04
#660000
1"
13
14
19
1(
#680000
0"
03
04
#700000
1"
13
14
#720000
0"
03
04
#740000
1"
13
14
#760000
1%
1&
0"
1<
1?
03
04
1@
1=
#780000
1"
13
14
1A
1>
1*
1+
#800000
0"
03
04
#820000
0#
0$
1"
05
0:
13
14
06
0;
0)
#840000
0"
03
04
#860000
1"
13
14
09
0(
#880000
0"
03
04
#900000
1"
13
14
#920000
0"
03
04
#940000
1"
13
14
#960000
0!
0%
0&
0"
08
0<
0?
03
04
0@
0=
#980000
1"
13
14
