week4/4weekpractice2/simulation/qsim/practice2.msim.vcd
$comment
	File created using the following command:
		vcd file practice2.msim.vcd -direction
$end
$date
	Tue Oct 05 13:22:56 2021
$end
$version
	ModelSim Version 2020.1
$end
$timescale
	1ps
$end

$scope module practice2_vlg_vec_tst $end
$var reg 1 ! Ce $end
$var reg 1 " clk $end
$var reg 1 # D $end
$var reg 1 $ Rst_n $end
$var wire 1 % Q $end

$scope module i1 $end
$var wire 1 & gnd $end
$var wire 1 ' vcc $end
$var wire 1 ( unknown $end
$var tri1 1 ) devclrn $end
$var tri1 1 * devpor $end
$var tri1 1 + devoe $end
$var wire 1 , ~QUARTUS_CREATED_GND~I_combout $end
$var wire 1 - clk~input_o $end
$var wire 1 . D~input_o $end
$var wire 1 / Ce~input_o $end
$var wire 1 0 inst~0_combout $end
$var wire 1 1 inst~feeder_combout $end
$var wire 1 2 Rst_n~input_o $end
$var wire 1 3 inst~q $end
$upscope $end
$upscope $end
$enddefinitions $end
#0
$dumpvars
0!
0"
0#
1$
0%
0&
1'
x(
1)
1*
1+
0,
0-
0.
0/
00
01
12
03
$end
#20000
1"
1-
#40000
0"
0-
#60000
1"
1-
#80000
0"
0-
#100000
1!
1#
1"
1/
1.
1-
10
11
#120000
0"
0-
#140000
0!
0#
1"
0/
0.
1-
00
01
13
1%
10
11
#160000
0"
0-
#180000
1"
1-
#200000
1#
0"
1.
0-
#220000
1"
1-
#240000
0"
0-
#260000
1"
1-
#280000
0"
0-
#300000
1"
1-
#320000
0"
0-
#340000
1"
1-
#360000
0"
0-
#380000
0#
1"
0.
1-
#400000
0"
0-
#420000
1!
1"
1/
1-
00
01
#440000
0"
0-
#460000
1"
1-
03
0%
#480000
0!
0"
0/
0-
#500000
1"
1-
#520000
1#
0"
1.
0-
#540000
1"
1-
#560000
0"
0-
#580000
1"
1-
#600000
0"
0-
#620000
1"
1-
#640000
0"
0-
#660000
1"
1-
#680000
0"
0-
#700000
1"
1-
#720000
0"
0-
#740000
0#
1"
0.
1-
#760000
1!
0"
1/
0-
#780000
1"
1-
#800000
1#
0"
1.
0-
10
11
#820000
1"
1-
13
1%
#840000
0#
0"
0.
0-
00
01
#860000
1"
1-
03
0%
#880000
1#
0"
1.
0-
10
11
#900000
1"
1-
13
1%
#920000
0!
0#
0"
0/
0.
0-
#940000
1"
1-
#960000
0"
0-
#980000
1"
1-
