week4/4weekpractice5/simulation/qsim/practice5.msim.vcd
$comment
	File created using the following command:
		vcd file practice5.msim.vcd -direction
$end
$date
	Tue Oct 05 20:12:08 2021
$end
$version
	ModelSim Version 2020.1
$end
$timescale
	1ps
$end

$scope module practice5_vlg_vec_tst $end
$var reg 1 ! Ce $end
$var reg 1 " CLK $end
$var reg 1 # Din0 $end
$var reg 1 $ Din1 $end
$var reg 1 % Din2 $end
$var reg 1 & Din3 $end
$var reg 1 ' RST $end
$var wire 1 ( A0 $end
$var wire 1 ) A1 $end
$var wire 1 * A2 $end
$var wire 1 + A3 $end
$var wire 1 , B0 $end
$var wire 1 - B1 $end
$var wire 1 . B2 $end
$var wire 1 / B3 $end

$scope module i1 $end
$var wire 1 0 gnd $end
$var wire 1 1 vcc $end
$var wire 1 2 unknown $end
$var tri1 1 3 devclrn $end
$var tri1 1 4 devpor $end
$var tri1 1 5 devoe $end
$var wire 1 6 ~QUARTUS_CREATED_GND~I_combout $end
$var wire 1 7 CLK~input_o $end
$var wire 1 8 CLK~inputCLKENA0_outclk $end
$var wire 1 9 Din0~input_o $end
$var wire 1 : inst|inst~feeder_combout $end
$var wire 1 ; RST~input_o $end
$var wire 1 < Ce~input_o $end
$var wire 1 = inst|inst~q $end
$var wire 1 > inst8|inst~feeder_combout $end
$var wire 1 ? inst8|inst~q $end
$var wire 1 @ Din1~input_o $end
$var wire 1 A inst|inst1~q $end
$var wire 1 B inst8|inst1~feeder_combout $end
$var wire 1 C inst8|inst1~q $end
$var wire 1 D Din2~input_o $end
$var wire 1 E inst|inst2~q $end
$var wire 1 F inst8|inst2~feeder_combout $end
$var wire 1 G inst8|inst2~q $end
$var wire 1 H Din3~input_o $end
$var wire 1 I inst|inst3~q $end
$var wire 1 J inst8|inst3~feeder_combout $end
$var wire 1 K inst8|inst3~q $end
$upscope $end
$upscope $end
$enddefinitions $end
#0
$dumpvars
0!
0"
0#
0$
0%
0&
1'
0(
0)
0*
0+
0,
0-
0.
0/
00
11
x2
13
14
15
06
07
08
09
0:
1;
0<
0=
0>
0?
0@
0A
0B
0C
0D
0E
0F
0G
0H
0I
0J
0K
$end
#20000
1"
1#
17
19
18
1:
#40000
0"
07
08
#60000
1"
17
18
#80000
1!
1$
0"
1<
1@
07
08
#100000
1"
17
18
1A
1=
1,
1-
1>
1B
#120000
0#
0"
09
07
08
0:
#140000
1%
1"
1D
17
18
1E
1C
1?
0=
0,
1(
1)
1.
0>
1F
#160000
0"
07
08
#180000
1"
17
18
1G
0?
0(
1*
#200000
0$
0"
0@
07
08
#220000
1"
17
18
0A
0-
0B
#240000
1&
0%
0"
1H
0D
07
08
#260000
0!
1"
0<
17
18
#280000
0"
07
08
#300000
1"
17
18
#320000
0&
0"
0H
07
08
#340000
1"
17
18
#360000
0"
07
08
#380000
1%
1!
1"
1D
1<
17
18
0C
0)
#400000
1#
0"
19
07
08
1:
#420000
1$
1"
1@
17
18
1A
1=
1,
1-
1>
1B
#440000
0"
07
08
#460000
1"
17
18
1C
1?
1(
1)
#480000
0%
0"
0D
07
08
#500000
1&
1"
1H
17
18
1I
0E
0.
1/
0F
1J
#520000
0$
0"
0@
07
08
#540000
1"
17
18
1K
0G
0A
0-
0*
1+
0B
#560000
0"
07
08
#580000
0!
1"
0<
17
18
#600000
0"
07
08
#620000
0#
0&
1"
09
0H
17
18
0:
#640000
0"
07
08
#660000
1"
17
18
#680000
1!
1&
0"
1<
1H
07
08
#700000
1"
17
18
0C
0=
0,
0)
0>
#720000
0"
07
08
#740000
1%
0&
1"
1D
0H
17
18
0I
1E
0?
0(
1.
0/
1F
0J
#760000
1$
0"
1@
07
08
#780000
1#
1"
19
17
18
1:
0K
1G
1A
1-
1*
0+
1B
#800000
0"
07
08
#820000
1"
17
18
1C
1=
1,
1)
1>
#840000
0$
0"
0@
07
08
#860000
1"
17
18
0A
1?
1(
0-
0B
#880000
0"
07
08
#900000
0%
1"
0D
17
18
0E
0C
0)
0.
0F
#920000
0#
0"
09
07
08
0:
#940000
1"
17
18
0G
0=
0,
0*
0>
#960000
0"
07
08
#980000
1"
17
18
0?
0(
